…
    ## Warning: Continuous x aesthetic -- did you forget aes(group=...)?

    ## Warning: Removed 10037 rows containing missing values (stat_boxplot).

<img src="Case_study_files/figure-gfm/unnamed-chunk-6-1.png" width="90%" />

Price and neighborhood

``` r
nyc_airbnb %>% 
  group_by(neighbourhood) %>% 
  summarize(mean_price = mean(price, na.rm = TRUE))
```

    ## # A tibble: 217 × 2
    ##    neighbourhood              mean_price
    ##    <chr>                           <dbl>
    ##  1 Allerton                         68.6
    ##  2 Arden Heights                    62.7
    ##  3 Arrochar                        223. 
    ##  4 Arverne                          92.5
    ##  5 Astoria                          98.4
    ##  6 Bath Beach                      106. 
    ##  7 Battery Park City               221. 
    ##  8 Bay Ridge                        89.9
    ##  9 Bay Terrace                     143. 
    ## 10 Bay Terrace, Staten Island       75  
    ## # … with 207 more rows

``` r
nyc_airbnb %>% 
  filter(borough == "Manhattan") %>% 
  group_by(neighbourhood) %>% 
  summarize(mean_price = mean(price, na.rm = TRUE)) %>% 
  
  arrange(mean_price)
```

    ## # A tibble: 32 × 2
    ##    neighbourhood       mean_price
    ##    <chr>                    <dbl>
    ##  1 Marble Hill               83.6
    ##  2 Inwood                    86.5
    ##  3 Washington Heights        90.1
    ##  4 Morningside Heights      107. 
    ##  5 Harlem                   117. 
    ##  6 Roosevelt Island         122. 
    ##  7 Two Bridges              123. 
    ##  8 East Harlem              128. 
    ##  9 Chinatown                158. 
    ## 10 Upper East Side          172. 
    ## # … with 22 more rows

``` r
nyc_airbnb %>% 
  filter(borough == "Manhattan") %>% 
  group_by(neighbourhood) %>% 
  summarize(mean_price = mean(price, na.rm = TRUE)) %>% 
  arrange(mean_price)
```

    ## # A tibble: 32 × 2
    ##    neighbourhood       mean_price
    ##    <chr>                    <dbl>
    ##  1 Marble Hill               83.6
    ##  2 Inwood                    86.5
    ##  3 Washington Heights        90.1
    ##  4 Morningside Heights      107. 
    ##  5 Harlem                   117. 
    ##  6 Roosevelt Island         122. 
    ##  7 Two Bridges              123. 
    ##  8 East Harlem              128. 
    ##  9 Chinatown                158. 
    ## 10 Upper East Side          172. 
    ## # … with 22 more rows
…
<img src="Case_study_files/figure-gfm/unnamed-chunk-9-1.png" width="90%" />

``` r
nyc_airbnb %>% 
  filter(borough == "Manhattan") %>% 
  group_by(neighbourhood) %>% 
  summarize(mean_price = mean(price, na.rm = TRUE)) %>% 
  arrange(mean_price)
```

    ## # A tibble: 32 × 2
    ##    neighbourhood       mean_price
    ##    <chr>                    <dbl>
    ##  1 Marble Hill               83.6
    ##  2 Inwood                    86.5
    ##  3 Washington Heights        90.1
    ##  4 Morningside Heights      107. 
    ##  5 Harlem                   117. 
    ##  6 Roosevelt Island         122. 
    ##  7 Two Bridges              123. 
    ##  8 East Harlem              128. 
    ##  9 Chinatown                158. 
    ## 10 Upper East Side          172. 
    ## # … with 22 more rows
…
<img src="Case_study_files/figure-gfm/unnamed-chunk-10-1.png" width="90%" />

``` r
nyc_airbnb %>% 
  filter(borough == "Manhattan") %>% 
  group_by(neighbourhood) %>% 
  summarize(mean_price = mean(price, na.rm = TRUE)) %>% 
  arrange(mean_price)
```

    ## # A tibble: 32 × 2
    ##    neighbourhood       mean_price
    ##    <chr>                    <dbl>
    ##  1 Marble Hill               83.6
    ##  2 Inwood                    86.5
    ##  3 Washington Heights        90.1
    ##  4 Morningside Heights      107. 
    ##  5 Harlem                   117. 
    ##  6 Roosevelt Island         122. 
    ##  7 Two Bridges              123. 
    ##  8 East Harlem              128. 
    ##  9 Chinatown                158. 
    ## 10 Upper East Side          172. 
    ## # … with 22 more rows
…
<img src="Case_study_files/figure-gfm/unnamed-chunk-11-1.png" width="90%" />

``` r
nyc_airbnb %>% 
  filter(borough == "Manhattan") %>% 
  group_by(neighbourhood) %>% 
  summarize(mean_price = mean(price, na.rm = TRUE)) %>% 
  arrange(mean_price)
```

    ## # A tibble: 32 × 2
    ##    neighbourhood       mean_price
    ##    <chr>                    <dbl>
    ##  1 Marble Hill               83.6
    ##  2 Inwood                    86.5
    ##  3 Washington Heights        90.1
    ##  4 Morningside Heights      107. 
    ##  5 Harlem                   117. 
    ##  6 Roosevelt Island         122. 
    ##  7 Two Bridges              123. 
    ##  8 East Harlem              128. 
    ##  9 Chinatown                158. 
    ## 10 Upper East Side          172. 
    ## # … with 22 more rows
…
